<svg version="1.1" xmlns="http://www.w3.org/2000/svg" viewBox="0 0 1194 720.061383465604" width="1194" height="720.061383465604">
  <!-- svg-source:excalidraw -->
  
  <defs>
    <style>
      @font-face {
        font-family: "Virgil";
        src: url("https://excalidraw.com/Virgil.woff2");
      }
      @font-face {
        font-family: "Cascadia";
        src: url("https://excalidraw.com/Cascadia.woff2");
      }
    </style>
  </defs>
  <rect x="0" y="0" width="1194" height="720.061383465604" fill="#ffffff"></rect><g stroke-linecap="round"><g transform="translate(805.5200334265314 118.27896486229818) rotate(0 -107.85445375404052 47.74083208734926)"><path d="M0.76 0.49 C-35.22 16.39, -179.71 79, -215.72 94.71 M-0.3 -0.3 C-36.42 15.78, -180.58 79.8, -216.47 95.78" stroke="#c92a2a" stroke-width="1" fill="none"></path></g><g transform="translate(805.5200334265314 118.27896486229818) rotate(0 -107.85445375404052 47.74083208734926)"><path d="M-194.07 75.59 C-203.29 83.03, -210.1 87.25, -216.28 97.63 M-194.4 74.84 C-203.71 82.43, -210.71 89.98, -215.81 96.77" stroke="#c92a2a" stroke-width="1" fill="none"></path></g><g transform="translate(805.5200334265314 118.27896486229818) rotate(0 -107.85445375404052 47.74083208734926)"><path d="M-185.73 94.34 C-197.48 95.9, -206.93 94.19, -216.28 97.63 M-186.07 93.59 C-198.4 94.21, -208.52 94.75, -215.81 96.77" stroke="#c92a2a" stroke-width="1" fill="none"></path></g></g><g stroke-linecap="round"><g transform="translate(530.8467046935414 308.65390627739066) rotate(359.3015285773502 -158.2996419393244 43.51727675152509)"><path d="M1.18 -0.27 C-51.65 14.34, -264.94 73.85, -317.78 88.5 M0.34 -1.46 C-52.05 12.71, -262.8 71.53, -315.53 86.55" stroke="#364fc7" stroke-width="1" fill="none"></path></g><g transform="translate(530.8467046935414 308.65390627739066) rotate(359.3015285773502 -158.2996419393244 43.51727675152509)"><path d="M-291.63 67.57 C-296.21 75.14, -303.36 76.17, -315.64 86.49 M-291.68 69.33 C-299.81 74.91, -310.09 81.36, -315.21 85.72" stroke="#364fc7" stroke-width="1" fill="none"></path></g><g transform="translate(530.8467046935414 308.65390627739066) rotate(359.3015285773502 -158.2996419393244 43.51727675152509)"><path d="M-286.07 87.32 C-292.09 90.31, -300.54 86.72, -315.64 86.49 M-286.12 89.08 C-296.49 87.28, -308.86 86.32, -315.21 85.72" stroke="#364fc7" stroke-width="1" fill="none"></path></g></g><g stroke-linecap="round" transform="translate(685 38.07098765432099) rotate(0 132.5 39.5)"><path d="M0.58 -0.81 C79.15 -1.09, 156.15 -2.92, 263.58 0.51 M0.4 -0.14 C58.26 -0.11, 115.23 -0.31, 264.31 -0.16 M265.38 -1.18 C266.84 26.23, 265.34 52.21, 264.45 77.7 M265.47 0.46 C264.84 21.37, 263.41 44.99, 264.5 78.41 M265.29 77.74 C195.9 80.82, 127.56 78.96, -0.29 78.22 M264.65 78.86 C195.55 78.57, 126.63 78.32, 0.35 78.29 M-1.2 79.99 C1.14 59.72, -0.94 39.48, 0.93 0.77 M-0.94 78.67 C0.84 60.45, 0.33 43.18, 0.4 0.05" stroke="#000000" stroke-width="1" fill="none"></path></g><g transform="translate(690 10) rotate(0 81.5 10.5)"><text x="0" y="15" font-family="Virgil, Segoe UI Emoji" font-size="16px" fill="#000000" text-anchor="start" style="white-space: pre;" direction="ltr">federation.properties</text></g><g stroke-linecap="round"><g transform="translate(626.9446845957351 316.12062433533094) rotate(332.55880025411807 -22.90405417815509 42.52048682824616)"><path d="M-1.04 -0.72 C-8.46 13.36, -38.07 70.39, -45.25 84.69 M0.61 1.52 C-6.93 15.71, -38.89 71.67, -46.42 85.76" stroke="#862e9c" stroke-width="1" fill="none"></path></g><g transform="translate(626.9446845957351 316.12062433533094) rotate(332.55880025411807 -22.90405417815509 42.52048682824616)"><path d="M-42.91 55.44 C-44.25 64.21, -44.77 69.88, -47.61 86.12 M-41.95 55.75 C-42.38 66.62, -44.53 75.71, -46.95 86.65" stroke="#862e9c" stroke-width="1" fill="none"></path></g><g transform="translate(626.9446845957351 316.12062433533094) rotate(332.55880025411807 -22.90405417815509 42.52048682824616)"><path d="M-24.96 65.39 C-30.54 71.67, -35.28 75, -47.61 86.12 M-24 65.7 C-30.29 73.47, -38.28 79.33, -46.95 86.65" stroke="#862e9c" stroke-width="1" fill="none"></path></g></g><g stroke-linecap="round" transform="translate(447 217.070987654321) rotate(0 149.49999999999997 41.5)"><path d="M-0.51 -1.09 C96.22 0.65, 190.63 0.44, 299.27 0.37 M-0.28 0.58 C98.85 0.62, 196.69 0.11, 299.66 -0.65 M297.76 1.54 C298.09 18.54, 300.63 41.54, 300.13 81.59 M298.34 0.01 C299.36 22.97, 298.61 44.49, 299.53 82.76 M299.33 83.81 C213.81 86.14, 128.23 84.32, -0.31 82.54 M298.63 83.66 C237.48 82.61, 176.72 81.46, -0.32 83.16 M1.99 82.96 C0.87 54.78, -0.83 26.45, 0.69 0.13 M-0.69 83.34 C0.11 65.31, -0.72 46.07, -0.32 0.46" stroke="#c92a2a" stroke-width="1" fill="none"></path></g><g transform="translate(451.5 190.57098765432104) rotate(0 60.5 10.5)"><text x="0" y="15" font-family="Virgil, Segoe UI Emoji" font-size="16px" fill="#c92a2a" text-anchor="start" style="white-space: pre;" direction="ltr">orga1.properties</text></g><g stroke-linecap="round"><g transform="translate(836.9184282637227 118.27896486229818) rotate(0 104.83291154476336 48.271090410377816)"><path d="M-0.41 0.15 C34.63 16.07, 175.21 80.28, 210.07 96.39" stroke="#c92a2a" stroke-width="1.5" fill="none" stroke-dasharray="1.5 7"></path></g><g transform="translate(836.9184282637227 118.27896486229818) rotate(0 104.83291154476336 48.271090410377816)"><path d="M180.43 95.66 C187.85 94.28, 197.01 95.59, 209.2 97.06" stroke="#c92a2a" stroke-width="1.5" fill="none" stroke-dasharray="1.5 5"></path></g><g transform="translate(836.9184282637227 118.27896486229818) rotate(0 104.83291154476336 48.271090410377816)"><path d="M188.99 77.01 C194.12 80.91, 200.84 87.52, 209.2 97.06" stroke="#c92a2a" stroke-width="1.5" fill="none" stroke-dasharray="1.5 5"></path></g></g><g stroke-linecap="round" transform="translate(905 218.070987654321) rotate(0 139.5 41)"><path d="M1.31 -0.65 C104.03 -0.42, 208.89 -0.94, 279.52 0.13 M278.8 1.19 C279.8 22.52, 278.29 41.39, 279.28 82.09 M280.19 82.82 C203.63 81.2, 127.35 82.76, 0.25 81.81 M1.88 80.87 C1.78 58.13, -0.49 36.95, -0.27 -0.98" stroke="#c92a2a" stroke-width="1.5" fill="none" stroke-dasharray="1.5 7"></path></g><g transform="translate(911.5 190.32098765432104) rotate(0 64.00000000000003 10.5)"><text x="0" y="15" font-family="Virgil, Segoe UI Emoji" font-size="16px" fill="#c92a2a" text-anchor="start" style="white-space: pre;" direction="ltr">orga2.properties</text></g><g transform="translate(696 45.07098765432099) rotate(0 124.5 31.5)"><text x="0" y="9.6" font-family="Cascadia, Segoe UI Emoji" font-size="10.08118126397696px" fill="#000000" text-anchor="start" style="white-space: pre;" direction="ltr">cf. MODELES/federation.properties</text><text x="0" y="22.2" font-family="Cascadia, Segoe UI Emoji" font-size="10.08118126397696px" fill="#000000" text-anchor="start" style="white-space: pre;" direction="ltr">federation.name = CHATONS</text><text x="0" y="34.8" font-family="Cascadia, Segoe UI Emoji" font-size="10.08118126397696px" fill="#000000" text-anchor="start" style="white-space: pre;" direction="ltr"># [Subs]</text><text x="0" y="47.4" font-family="Cascadia, Segoe UI Emoji" font-size="10.08118126397696px" fill="#000000" text-anchor="start" style="white-space: pre;" direction="ltr">subs.orga1 = https://.../orga1.properties </text><text x="0" y="60" font-family="Cascadia, Segoe UI Emoji" font-size="10.08118126397696px" fill="#000000" text-anchor="start" style="white-space: pre;" direction="ltr">subs.orga2 = https://.../orga2.properties </text></g><g transform="translate(465 220.070987654321) rotate(0 138.5 37.5)"><text x="0" y="10.5" font-family="Cascadia, Segoe UI Emoji" font-size="9.846153846153843px" fill="#000000" text-anchor="start" style="white-space: pre;" direction="ltr">cf. MODELES/organization.properties</text><text x="0" y="23" font-family="Cascadia, Segoe UI Emoji" font-size="9.846153846153843px" fill="#000000" text-anchor="start" style="white-space: pre;" direction="ltr">organization.name = orga1</text><text x="0" y="35.5" font-family="Cascadia, Segoe UI Emoji" font-size="9.846153846153843px" fill="#000000" text-anchor="start" style="white-space: pre;" direction="ltr"># [Subs]</text><text x="0" y="48" font-family="Cascadia, Segoe UI Emoji" font-size="9.846153846153843px" fill="#000000" text-anchor="start" style="white-space: pre;" direction="ltr">subs.service1 = https://.../service1.properties </text><text x="0" y="60.5" font-family="Cascadia, Segoe UI Emoji" font-size="9.846153846153843px" fill="#000000" text-anchor="start" style="white-space: pre;" direction="ltr">subs.service2 = https://.../service2.properties</text><text x="0" y="73" font-family="Cascadia, Segoe UI Emoji" font-size="9.846153846153843px" fill="#000000" text-anchor="start" style="white-space: pre;" direction="ltr">subs.hosting1 = https://.../hosting1.properties</text></g><g transform="translate(747.1405316765215 142.2913511035562) rotate(335.9688380960971 17.5 10.5)"><text x="0" y="15" font-family="Virgil, Segoe UI Emoji" font-size="16px" fill="#c92a2a" text-anchor="start" style="white-space: pre;" direction="ltr">orga</text></g><g transform="translate(591.980392296383 330.7541539490253) rotate(90.59656695556954 27 10.5)"><text x="0" y="15" font-family="Virgil, Segoe UI Emoji" font-size="16px" fill="#862e9c" text-anchor="start" style="white-space: pre;" direction="ltr">hosting</text></g><g transform="translate(356.5 323.570987654321) rotate(343.0724869358529 27 10.5)"><text x="0" y="15" font-family="Virgil, Segoe UI Emoji" font-size="16px" fill="#364fc7" text-anchor="start" style="white-space: pre;" direction="ltr">service</text></g><g stroke-linecap="round"><g transform="translate(671.5400301009201 309.0961742680198) rotate(0 76.53832610229317 46.19985258863085)"><path d="M-0.96 0.35 C24.56 15.6, 127.88 76.64, 154.03 92.05" stroke="#364fc7" stroke-width="1.5" fill="none" stroke-dasharray="1.5 7"></path></g><g transform="translate(671.5400301009201 309.0961742680198) rotate(0 76.53832610229317 46.19985258863085)"><path d="M125.12 84.93 C135.08 90.45, 147.44 91.22, 155.17 92.68" stroke="#364fc7" stroke-width="1.5" fill="none" stroke-dasharray="1.5 5"></path></g><g transform="translate(671.5400301009201 309.0961742680198) rotate(0 76.53832610229317 46.19985258863085)"><path d="M135.55 67.26 C141.66 79.35, 150.09 86.76, 155.17 92.68" stroke="#364fc7" stroke-width="1.5" fill="none" stroke-dasharray="1.5 5"></path></g></g><g transform="translate(713.7461393736925 329.1063621533415) rotate(25.644509277299 27 10.5)"><text x="0" y="15" font-family="Virgil, Segoe UI Emoji" font-size="16px" fill="#364fc7" text-anchor="start" style="white-space: pre;" direction="ltr">service</text></g><g transform="translate(987.1675057541515 142.3605368362027) rotate(22.09467761547987 17.5 10.5)"><text x="0" y="15" font-family="Virgil, Segoe UI Emoji" font-size="16px" fill="#c92a2a" text-anchor="start" style="white-space: pre;" direction="ltr">orga</text></g><g stroke-linecap="round"><g transform="translate(954.3017476706302 308.76846411766127) rotate(2.727649508848826 1.4504854471516921 47.20949954256773)"><path d="M-0.53 -0.83 C-0.13 15.2, 2.71 79.09, 3.43 95.25" stroke="#364fc7" stroke-width="1.5" fill="none" stroke-dasharray="1.5 7"></path></g><g transform="translate(954.3017476706302 308.76846411766127) rotate(2.727649508848826 1.4504854471516921 47.20949954256773)"><path d="M-9.44 67.9 C-5.6 79.23, 0.27 86.92, 5.29 96.36" stroke="#364fc7" stroke-width="1.5" fill="none" stroke-dasharray="1.5 5"></path></g><g transform="translate(954.3017476706302 308.76846411766127) rotate(2.727649508848826 1.4504854471516921 47.20949954256773)"><path d="M11.06 66.99 C7.04 78.58, 5.04 86.62, 5.29 96.36" stroke="#364fc7" stroke-width="1.5" fill="none" stroke-dasharray="1.5 5"></path></g></g><g stroke-linecap="round"><g transform="translate(1140.539550647657 303.44171327793896) rotate(5.013431036034105 4.373226858579471 49.57734563942046)"><path d="M-0.83 0.22 C0.93 16.79, 7.69 82.78, 9.57 98.94" stroke="#862e9c" stroke-width="1.5" fill="none" stroke-dasharray="1.5 7"></path></g><g transform="translate(1140.539550647657 303.44171327793896) rotate(5.013431036034105 4.373226858579471 49.57734563942046)"><path d="M-3.31 70.29 C0.17 77.81, 0.17 85.91, 10.68 97.88" stroke="#862e9c" stroke-width="1.5" fill="none" stroke-dasharray="1.5 5"></path></g><g transform="translate(1140.539550647657 303.44171327793896) rotate(5.013431036034105 4.373226858579471 49.57734563942046)"><path d="M17.1 68.08 C16.03 75.95, 11.52 84.54, 10.68 97.88" stroke="#862e9c" stroke-width="1.5" fill="none" stroke-dasharray="1.5 5"></path></g></g><g transform="translate(1134.980392296383 323.7541539490253) rotate(90.73201624543952 27 10.5)"><text x="0" y="15" font-family="Virgil, Segoe UI Emoji" font-size="16px" fill="#862e9c" text-anchor="start" style="white-space: pre;" direction="ltr">hosting</text></g><g transform="translate(943.5746388694904 323.3603456021664) rotate(87.42204746556244 27 10.5)"><text x="0" y="15" font-family="Virgil, Segoe UI Emoji" font-size="16px" fill="#364fc7" text-anchor="start" style="white-space: pre;" direction="ltr">service</text></g><g stroke-linecap="round"><g transform="translate(1044.7305091036292 307.2091949646706) rotate(359.25336932062635 -2.186889049684453 48.40187105824282)"><path d="M0.61 -0.16 C-0.26 16.17, -4.35 81.07, -4.98 96.97" stroke="#364fc7" stroke-width="1.5" fill="none" stroke-dasharray="1.5 7"></path></g><g transform="translate(1044.7305091036292 307.2091949646706) rotate(359.25336932062635 -2.186889049684453 48.40187105824282)"><path d="M-14 66.36 C-9.34 78.46, -9.48 85.74, -5.45 97.5" stroke="#364fc7" stroke-width="1.5" fill="none" stroke-dasharray="1.5 5"></path></g><g transform="translate(1044.7305091036292 307.2091949646706) rotate(359.25336932062635 -2.186889049684453 48.40187105824282)"><path d="M6.49 67.45 C4.64 79.31, -2.01 86.24, -5.45 97.5" stroke="#364fc7" stroke-width="1.5" fill="none" stroke-dasharray="1.5 5"></path></g></g><g stroke-linecap="round" transform="translate(10 410.070987654321) rotate(0 183 40)"><path d="M1.1 -0.15 C89.59 1.03, 180.1 1.53, 364.9 -0.18 M0.11 0.51 C137.37 1.41, 274.36 2.2, 365.75 0.27 M365.29 -0.48 C366.77 20.19, 366.67 36.38, 366.74 79.74 M365.35 -0.02 C365.21 18.19, 365.53 35.14, 365.7 79.55 M364.76 80.29 C282.02 82.04, 197.7 82.37, -0.8 80.8 M365.42 80.45 C264.03 82.56, 160.46 81.66, 0.33 80.37 M-1.63 78.05 C0.06 59.27, 1.83 37.18, 1.18 1.99 M0.12 79.61 C-0.91 61.38, 0.21 42.64, -0.26 -0.15" stroke="#364fc7" stroke-width="1" fill="none"></path></g><g stroke-linecap="round" transform="translate(783 414.070987654321) rotate(0 34 38.5)"><path d="M1.64 1.91 C23.63 0.18, 48.9 2.05, 69.97 0.7 M68.91 0.76 C67.82 26.03, 68.53 49.56, 70 78.36 M67.8 77.76 C52.2 75.45, 37.38 77.18, 1.17 75.91 M-1.78 75.81 C-1.18 58.68, 1.22 43.01, 0.04 -1.39" stroke="#364fc7" stroke-width="1.5" fill="none" stroke-dasharray="1.5 7"></path></g><g transform="translate(22 418.4043209876544) rotate(0 172 32.5)"><text x="0" y="11" font-family="Cascadia, Segoe UI Emoji" font-size="10.502564102564097px" fill="#000000" text-anchor="start" style="white-space: pre;" direction="ltr">cf. MODELES/service-NOMDUSERVICE.properties</text><text x="0" y="24" font-family="Cascadia, Segoe UI Emoji" font-size="10.502564102564097px" fill="#000000" text-anchor="start" style="white-space: pre;" direction="ltr">service.name = service1</text><text x="0" y="37" font-family="Cascadia, Segoe UI Emoji" font-size="10.502564102564097px" fill="#000000" text-anchor="start" style="white-space: pre;" direction="ltr"># [Subs]</text><text x="0" y="50" font-family="Cascadia, Segoe UI Emoji" font-size="10.502564102564097px" fill="#000000" text-anchor="start" style="white-space: pre;" direction="ltr">subs.metrics1 = https://.../metrics-service1.properties </text><text x="0" y="63" font-family="Cascadia, Segoe UI Emoji" font-size="10.502564102564097px" fill="#000000" text-anchor="start" style="white-space: pre;" direction="ltr"></text></g><g stroke-linecap="round" transform="translate(384 412.070987654321) rotate(0 192.5 40)"><path d="M-1.1 0.53 C106.6 -0.34, 215.65 0.79, 384.94 0.59 M-0.19 -0.16 C107.18 2.21, 214.25 2.42, 384.82 0.5 M385.93 1.01 C383.87 18.85, 385.23 41.76, 386.79 80.24 M385.79 0.45 C386.2 24.51, 385.62 48.29, 384.6 79.77 M384.36 79.65 C274.57 80.4, 165.96 81.57, -0.63 79.69 M385.25 79.99 C237.81 80.62, 90.21 81.65, -0.15 80.07 M-1.43 79.12 C-1.85 63.22, 1.12 46.54, -1.02 1.77 M0.86 80.99 C-0.29 59.18, -1.16 38.54, 0.69 -0.34" stroke="#862e9c" stroke-width="1" fill="none"></path></g><g transform="translate(404 423.070987654321) rotate(0 181.5 31.5)"><text x="0" y="9.6" font-family="Cascadia, Segoe UI Emoji" font-size="9.846153846153843px" fill="#000000" text-anchor="start" style="white-space: pre;" direction="ltr">cf. MODELES/hosting.properties...</text><text x="0" y="22.2" font-family="Cascadia, Segoe UI Emoji" font-size="9.846153846153843px" fill="#000000" text-anchor="start" style="white-space: pre;" direction="ltr"></text><text x="0" y="34.8" font-family="Cascadia, Segoe UI Emoji" font-size="9.846153846153843px" fill="#000000" text-anchor="start" style="white-space: pre;" direction="ltr"># [Subs]</text><text x="0" y="47.4" font-family="Cascadia, Segoe UI Emoji" font-size="9.846153846153843px" fill="#000000" text-anchor="start" style="white-space: pre;" direction="ltr">subs.hostingmetrics1 = https://.../metrics-hosting1.properties </text><text x="0" y="60" font-family="Cascadia, Segoe UI Emoji" font-size="9.846153846153843px" fill="#000000" text-anchor="start" style="white-space: pre;" direction="ltr"></text></g><g stroke-linecap="round" transform="translate(910 406.070987654321) rotate(0 38.5 40)"><path d="M1.32 -0.77 C23.2 -0.88, 45.8 -1.14, 76.75 -0.49 M76.73 -0.43 C75.11 17.4, 77.43 30.49, 77.87 81.13 M76.48 79.16 C53.96 78.68, 32.48 79.67, -0.64 80.8 M-1.53 79.59 C-1.79 63.08, -2.12 42.49, -0.21 -0.7" stroke="#364fc7" stroke-width="1.5" fill="none" stroke-dasharray="1.5 7"></path></g><g stroke-linecap="round" transform="translate(997 404.070987654321) rotate(0 42.5 40)"><path d="M-1.83 0.63 C33.56 1.48, 63.69 0.1, 86.37 0.5 M86.48 -1.48 C84.41 32.5, 85.62 61.27, 85.71 79.29 M84.79 79.24 C64.48 78.74, 41.19 80.37, 0.75 81.77 M-0.81 81.65 C0.23 48.89, 1.2 17.36, 0.85 1.57" stroke="#364fc7" stroke-width="1.5" fill="none" stroke-dasharray="1.5 7"></path></g><g stroke-linecap="round" transform="translate(1093 402.070987654321) rotate(0 42 40)"><path d="M0.21 -1.79 C24.36 -1.73, 44.07 -2.1, 84.35 -0.46 M85.58 -1.17 C83.21 21.56, 83.7 46.13, 82.62 80.88 M85.79 78.43 C68.37 80.21, 49.73 79.49, 1.36 80.33 M0.25 80.12 C-2.49 53.21, -2.61 27.69, -0.44 -1.96" stroke="#862e9c" stroke-width="1.5" fill="none" stroke-dasharray="1.5 7"></path></g><g transform="translate(15 384.9637902951124) rotate(0 70 10.5)"><text x="0" y="15" font-family="Virgil, Segoe UI Emoji" font-size="16px" fill="#364fc7" text-anchor="start" style="white-space: pre;" direction="ltr">service1.properties</text></g><g transform="translate(781 402.49955908289246) rotate(0 33.5 4.785714285714278)"><text x="0" y="6.571428571428571" font-family="Virgil, Segoe UI Emoji" font-size="7.29251700680272px" fill="#364fc7" text-anchor="start" style="white-space: pre;" direction="ltr">service2.properties</text></g><g transform="translate(390 385.070987654321) rotate(0 70 10.5)"><text x="0" y="15" font-family="Virgil, Segoe UI Emoji" font-size="16px" fill="#862e9c" text-anchor="start" style="white-space: pre;" direction="ltr">hosting1.properties</text></g><g stroke-linecap="round" transform="translate(18 628.070987654321) rotate(0 102.5 40)"><path d="M1.72 0.12 C78.93 -1.5, 153.43 -0.61, 206.35 -0.73 M0.05 0.22 C81.5 -0.75, 163.04 0, 204.34 0.64 M204.42 -1.29 C203 24.47, 206.35 49.38, 204.24 81.52 M205.13 0.07 C204.8 28.56, 204.92 57.51, 204.49 80.61 M203.33 79.38 C147.02 81.24, 87.05 83.01, -1.16 78.43 M204.14 79.18 C131.1 80.09, 57.73 80.2, 0.47 79.9 M-1.94 78.54 C-1.35 53.82, 0.24 28.55, -0.14 -1.96 M-0.59 80.56 C-0.19 61.53, -0.51 43.84, -0.12 0.44" stroke="#087f5b" stroke-width="1" fill="none"></path></g><g transform="translate(33 650.070987654321) rotate(0 95 12.5)"><text x="0" y="10.5" font-family="Cascadia, Segoe UI Emoji" font-size="9.846153846153843px" fill="#000000" text-anchor="start" style="white-space: pre;" direction="ltr">cf. MODELES/metrics.properties...</text><text x="0" y="23" font-family="Cascadia, Segoe UI Emoji" font-size="9.846153846153843px" fill="#000000" text-anchor="start" style="white-space: pre;" direction="ltr"></text></g><g transform="translate(20 604.070987654321) rotate(0 100.5 10.5)"><text x="0" y="15" font-family="Virgil, Segoe UI Emoji" font-size="16px" fill="#087f5b" text-anchor="start" style="white-space: pre;" direction="ltr">metrics-service1.properties</text></g><g stroke-linecap="round" transform="translate(907 635.070987654321) rotate(0 42 35)"><path d="M0.75 -0.85 C29.3 -0.88, 56.88 1.2, 84.99 -0.51 M83.87 -1.18 C83.69 25.17, 83.86 48.37, 84.9 70.47 M83.5 69.86 C56.17 70.94, 24.56 69.1, 0.65 69.1 M1.38 70.78 C0.34 52.77, 0.82 36.95, -1.13 -1.57" stroke="#087f5b" stroke-width="1.5" fill="none" stroke-dasharray="1.5 7"></path></g><g stroke-linecap="round"><g transform="translate(142.24370588187787 499.019208377434) rotate(0 -22.66300132000589 53.66015001299792)"><path d="M-0.83 0.02 C-8.46 17.93, -37.73 90.37, -45.09 108.34 M0.93 -1.02 C-6.95 16.5, -38.45 88.99, -46.26 106.79" stroke="#087f5b" stroke-width="1" fill="none"></path></g><g transform="translate(142.24370588187787 499.019208377434) rotate(0 -22.66300132000589 53.66015001299792)"><path d="M-44.35 76.15 C-43 87.03, -44.55 99.05, -47.67 107.09 M-44.49 76.29 C-45.69 84.63, -45.4 92.5, -47.06 106.29" stroke="#087f5b" stroke-width="1" fill="none"></path></g><g transform="translate(142.24370588187787 499.019208377434) rotate(0 -22.66300132000589 53.66015001299792)"><path d="M-25.55 84.36 C-30.98 92.18, -39.24 101.26, -47.67 107.09 M-25.69 84.5 C-31.55 90.92, -35.91 96.75, -47.06 106.29" stroke="#087f5b" stroke-width="1" fill="none"></path></g></g><g transform="translate(83.14918205496491 522.988661495343) rotate(291.6947395361307 29.971847231193976 11.132400400157763)"><text x="0" y="16.264800800315523" font-family="Virgil, Segoe UI Emoji" font-size="17.126769846396563px" fill="#087f5b" text-anchor="start" style="white-space: pre;" direction="ltr">metrics</text></g><g stroke-linecap="round"><g transform="translate(942.1760506104345 493.38741893324186) rotate(0 3.5300690368877667 67.73952074835034)"><path d="M1.05 -0.4 C2.06 22.07, 5.06 113.21, 6.01 135.87" stroke="#087f5b" stroke-width="1.5" fill="none" stroke-dasharray="1.5 7"></path></g><g transform="translate(942.1760506104345 493.38741893324186) rotate(0 3.5300690368877667 67.73952074835034)"><path d="M-5.94 107.36 C0.07 116.65, 2.88 124.4, 7.75 137.37" stroke="#087f5b" stroke-width="1.5" fill="none" stroke-dasharray="1.5 5"></path></g><g transform="translate(942.1760506104345 493.38741893324186) rotate(0 3.5300690368877667 67.73952074835034)"><path d="M14.57 106.61 C14.56 116.3, 11.34 124.26, 7.75 137.37" stroke="#087f5b" stroke-width="1.5" fill="none" stroke-dasharray="1.5 5"></path></g></g><g stroke-linecap="round" transform="translate(1001 633.6380259623254) rotate(0 42 34.5)"><path d="M-0.27 0.16 C31.95 0.59, 64.18 -0.82, 82.1 0.75 M84.18 0.51 C85.15 15.65, 85.02 32.12, 84.97 70.2 M83.77 69.89 C60.53 70.24, 36.67 70.58, -1.51 68.76 M-1.02 67.54 C-0.09 46.36, 1.34 26.56, -0.76 -0.44" stroke="#087f5b" stroke-width="1.5" fill="none" stroke-dasharray="1.5 7"></path></g><g stroke-linecap="round" transform="translate(1095 635.5803136813704) rotate(0 42 34.5)"><path d="M0.57 -0.19 C24.63 -0.61, 51.75 -0.41, 85.21 -0.01 M84.3 0.87 C83.81 21.86, 84.99 47.32, 85.61 67.02 M84.82 69.5 C52.97 70.58, 18.37 67.41, -1.01 68.7 M0.39 69.55 C-0.34 53.82, 0.86 36.65, 0.74 0.03" stroke="#087f5b" stroke-width="1.5" fill="none" stroke-dasharray="1.5 7"></path></g><g stroke-linecap="round"><g transform="translate(1131.4598106182966 494.0230015447685) rotate(0 3.0839214972241393 66.28641455882331)"><path d="M0.34 -0.11 C1.26 21.93, 4.72 110.53, 5.83 132.69" stroke="#087f5b" stroke-width="1.5" fill="none" stroke-dasharray="1.5 7"></path></g><g transform="translate(1131.4598106182966 494.0230015447685) rotate(0 3.0839214972241393 66.28641455882331)"><path d="M-5.84 104.41 C-2.15 115.3, 1.78 124.16, 5.82 133.48" stroke="#087f5b" stroke-width="1.5" fill="none" stroke-dasharray="1.5 5"></path></g><g transform="translate(1131.4598106182966 494.0230015447685) rotate(0 3.0839214972241393 66.28641455882331)"><path d="M14.66 103.51 C11.69 114.75, 8.96 123.9, 5.82 133.48" stroke="#087f5b" stroke-width="1.5" fill="none" stroke-dasharray="1.5 5"></path></g></g><g stroke-linecap="round" transform="translate(784 630.5803136813704) rotate(0 42 38.5)"><path d="M-0.09 0.55 C19.19 -1.65, 40.84 -0.8, 83.49 -0.57 M85.48 1.58 C85.11 20.8, 82.12 43.91, 85.8 75.27 M82.49 76.96 C49.96 77.19, 17.21 75.49, -1.08 75.41 M1.7 78.87 C0.92 59.57, -1.47 39.6, -1.8 0.61" stroke="#087f5b" stroke-width="1.5" fill="none" stroke-dasharray="1.5 7"></path></g><g stroke-linecap="round"><g transform="translate(828.4595398685028 504.40735346333327) rotate(0 -0.9193022849895272 58.160775413036674)"><path d="M-0.06 0.33 C-0.31 19.47, -1.68 96.63, -1.78 115.99" stroke="#087f5b" stroke-width="1.5" fill="none" stroke-dasharray="1.5 7"></path></g><g transform="translate(828.4595398685028 504.40735346333327) rotate(0 -0.9193022849895272 58.160775413036674)"><path d="M-11.15 87.05 C-9.52 96.72, -5.92 102.87, -2.35 115.91" stroke="#087f5b" stroke-width="1.5" fill="none" stroke-dasharray="1.5 5"></path></g><g transform="translate(828.4595398685028 504.40735346333327) rotate(0 -0.9193022849895272 58.160775413036674)"><path d="M9.37 87.3 C5.31 96.9, 3.22 102.97, -2.35 115.91" stroke="#087f5b" stroke-width="1.5" fill="none" stroke-dasharray="1.5 5"></path></g></g><g stroke-linecap="round"><g transform="translate(1041.2463832211492 495.83115232323644) rotate(3.003031257344447 3.9949724877960193 67.41286206178836)"><path d="M-1.04 0.2 C0.6 22.45, 7.46 112.41, 9.03 134.62" stroke="#087f5b" stroke-width="1.5" fill="none" stroke-dasharray="1.5 7"></path></g><g transform="translate(1041.2463832211492 495.83115232323644) rotate(3.003031257344447 3.9949724877960193 67.41286206178836)"><path d="M-2.94 108.96 C0.56 114.28, 1.52 119.57, 10.16 133.12" stroke="#087f5b" stroke-width="1.5" fill="none" stroke-dasharray="1.5 5"></path></g><g transform="translate(1041.2463832211492 495.83115232323644) rotate(3.003031257344447 3.9949724877960193 67.41286206178836)"><path d="M17.53 107.45 C16.32 112.94, 12.56 118.58, 10.16 133.12" stroke="#087f5b" stroke-width="1.5" fill="none" stroke-dasharray="1.5 5"></path></g></g><g stroke-linecap="round" transform="translate(262 634.5448198542099) rotate(0 42 35.5)"><path d="M0.19 1.3 C29.25 -0.39, 61.05 -1.75, 85.47 1.57 M84.34 -1.56 C85.75 28.04, 85.72 55.1, 83.19 70.12 M85.48 71.94 C51.94 69.92, 20.18 70.29, -1.86 71.4 M0.76 69.74 C-1.18 48.16, 0.2 27.63, -0.3 -0.18" stroke="#087f5b" stroke-width="1.5" fill="none" stroke-dasharray="1.5 7"></path></g><g stroke-linecap="round"><g transform="translate(233.64452646784378 499.01157410329245) rotate(0 32.55372320254557 64.26727869264144)"><path d="M0.11 0.78 C10.9 21.89, 53.96 106.73, 64.99 127.76" stroke="#087f5b" stroke-width="1.5" fill="none" stroke-dasharray="1.5 7"></path></g><g transform="translate(233.64452646784378 499.01157410329245) rotate(0 32.55372320254557 64.26727869264144)"><path d="M44.26 107.02 C50.68 115.82, 56.49 122.1, 66.56 129.64" stroke="#087f5b" stroke-width="1.5" fill="none" stroke-dasharray="1.5 5"></path></g><g transform="translate(233.64452646784378 499.01157410329245) rotate(0 32.55372320254557 64.26727869264144)"><path d="M62.51 97.63 C63.07 109.51, 62.94 118.84, 66.56 129.64" stroke="#087f5b" stroke-width="1.5" fill="none" stroke-dasharray="1.5 5"></path></g></g><g transform="translate(236.02815276880614 526.4030934270028) rotate(67.75097634278751 29.971847231193976 11.132400400157763)"><text x="0" y="16.264800800315523" font-family="Virgil, Segoe UI Emoji" font-size="17.126769846396563px" fill="#087f5b" text-anchor="start" style="white-space: pre;" direction="ltr">metrics</text></g><g stroke-linecap="round" transform="translate(409.5 630.061383465604) rotate(0 102.5 40)"><path d="M-1.57 -0.81 C70.32 2.33, 142.36 1.08, 206.44 1.6 M0 0.63 C66.02 -0.29, 130.72 1.21, 205.43 -0.68 M204.51 -0.88 C205.28 24.14, 205.92 52.41, 205.13 81.09 M204.42 0.02 C206.23 30.92, 204.96 59.88, 205.33 80.67 M204.48 81.51 C138.47 79.47, 71.94 78.96, -1.68 78.68 M204.99 79.59 C137.72 79.71, 71.74 78.97, -0.88 80.12 M-1.89 80.94 C1.93 60.97, 0.79 37.38, 0.9 -1.42 M0.84 79.33 C0.86 51.05, 0.15 21.53, -0.81 -0.07" stroke="#087f5b" stroke-width="1" fill="none"></path></g><g transform="translate(424.5 652.061383465604) rotate(0 95 12.5)"><text x="0" y="10.5" font-family="Cascadia, Segoe UI Emoji" font-size="9.846153846153843px" fill="#000000" text-anchor="start" style="white-space: pre;" direction="ltr">cf. MODELES/metrics.properties...</text><text x="0" y="23" font-family="Cascadia, Segoe UI Emoji" font-size="9.846153846153843px" fill="#000000" text-anchor="start" style="white-space: pre;" direction="ltr"></text></g><g transform="translate(411.5 606.061383465604) rotate(0 101 10.5)"><text x="0" y="15" font-family="Virgil, Segoe UI Emoji" font-size="16px" fill="#087f5b" text-anchor="start" style="white-space: pre;" direction="ltr">metrics-hosting1.properties</text></g><g stroke-linecap="round"><g transform="translate(533.7437058818779 501.00960418871705) rotate(0 -21.99402169556592 54.77661484034269)"><path d="M-0.03 1.02 C-7.12 19.01, -36.3 89.53, -43.58 107.42 M-1.51 0.51 C-8.57 18.77, -36.88 91.37, -43.96 109.04" stroke="#087f5b" stroke-width="1" fill="none"></path></g><g transform="translate(533.7437058818779 501.00960418871705) rotate(0 -21.99402169556592 54.77661484034269)"><path d="M-41.46 80.87 C-43.18 87.02, -41.84 92.18, -44.08 108.58 M-43.95 78.26 C-42.3 88.55, -44.19 97.31, -43.94 108.27" stroke="#087f5b" stroke-width="1" fill="none"></path></g><g transform="translate(533.7437058818779 501.00960418871705) rotate(0 -21.99402169556592 54.77661484034269)"><path d="M-22.37 88.4 C-28.1 92.95, -30.81 96.51, -44.08 108.58 M-24.86 85.78 C-29 93.88, -36.63 100.38, -43.94 108.27" stroke="#087f5b" stroke-width="1" fill="none"></path></g></g><g transform="translate(474.64918205496497 524.9790573066259) rotate(291.6947395361307 29.971847231193976 11.132400400157763)"><text x="0" y="16.264800800315523" font-family="Virgil, Segoe UI Emoji" font-size="17.126769846396563px" fill="#087f5b" text-anchor="start" style="white-space: pre;" direction="ltr">metrics</text></g><g stroke-linecap="round" transform="translate(652.5 629.5352156654928) rotate(0 42 38.5)"><path d="M0.29 1.61 C26.77 -0.35, 49.81 -1.22, 84.01 1.41 M85.78 0.96 C81.86 26.14, 83.43 49.83, 83.51 76.12 M84.74 77.13 C58.76 78.97, 32.46 76.2, -1.16 77.04 M-1.67 77.65 C0.92 48.48, -2.38 17.48, -0.58 1.69" stroke="#087f5b" stroke-width="1.5" fill="none" stroke-dasharray="1.5 7"></path></g><g stroke-linecap="round"><g transform="translate(626.0639398993653 501.75787258846697) rotate(0 31.4394557799885 60.16075911815355)"><path d="M0.17 0.97 C10.45 20.68, 52.48 99.71, 62.71 119.36" stroke="#087f5b" stroke-width="1.5" fill="none" stroke-dasharray="1.5 7"></path></g><g transform="translate(626.0639398993653 501.75787258846697) rotate(0 31.4394557799885 60.16075911815355)"><path d="M42.1 100.99 C49.63 106.8, 57.32 114.7, 64.12 120.03" stroke="#087f5b" stroke-width="1.5" fill="none" stroke-dasharray="1.5 5"></path></g><g transform="translate(626.0639398993653 501.75787258846697) rotate(0 31.4394557799885 60.16075911815355)"><path d="M60.25 91.43 C60.89 100.94, 61.58 112.52, 64.12 120.03" stroke="#087f5b" stroke-width="1.5" fill="none" stroke-dasharray="1.5 5"></path></g></g><g transform="translate(627.5281527688062 528.3934892382858) rotate(67.75097634278751 29.971847231193976 11.132400400157763)"><text x="0" y="16.264800800315523" font-family="Virgil, Segoe UI Emoji" font-size="17.126769846396563px" fill="#087f5b" text-anchor="start" style="white-space: pre;" direction="ltr">metrics</text></g><g transform="translate(813.028152768806 522.4030934270029) rotate(88.45184230102184 29.971847231193976 11.132400400157763)"><text x="0" y="16.264800800315523" font-family="Virgil, Segoe UI Emoji" font-size="17.126769846396563px" fill="#087f5b" text-anchor="start" style="white-space: pre;" direction="ltr">metrics</text></g><g transform="translate(936.0281527688062 533.4030934270028) rotate(88.45184230102184 29.971847231193976 11.132400400157763)"><text x="0" y="16.264800800315523" font-family="Virgil, Segoe UI Emoji" font-size="17.126769846396563px" fill="#087f5b" text-anchor="start" style="white-space: pre;" direction="ltr">metrics</text></g><g transform="translate(1033.0281527688062 532.4030934270028) rotate(88.45184230102184 29.971847231193948 11.132400400157763)"><text x="0" y="16.264800800315523" font-family="Virgil, Segoe UI Emoji" font-size="17.126769846396563px" fill="#087f5b" text-anchor="start" style="white-space: pre;" direction="ltr">metrics</text></g><g transform="translate(1117.0281527688062 528.4030934270028) rotate(88.45184230102184 29.971847231193976 11.132400400157763)"><text x="0" y="16.264800800315523" font-family="Virgil, Segoe UI Emoji" font-size="17.126769846396563px" fill="#087f5b" text-anchor="start" style="white-space: pre;" direction="ltr">metrics</text></g><g transform="translate(1038 323.0354938271605) rotate(87.42204746556244 27 10.5)"><text x="0" y="15" font-family="Virgil, Segoe UI Emoji" font-size="16px" fill="#364fc7" text-anchor="start" style="white-space: pre;" direction="ltr">service</text></g></svg>
