<?xml version="1.0" encoding="UTF-8" standalone="no"?>
<svg
   xmlns:dc="http://purl.org/dc/elements/1.1/"
   xmlns:cc="http://creativecommons.org/ns#"
   xmlns:rdf="http://www.w3.org/1999/02/22-rdf-syntax-ns#"
   xmlns:svg="http://www.w3.org/2000/svg"
   xmlns="http://www.w3.org/2000/svg"
   xmlns:sodipodi="http://sodipodi.sourceforge.net/DTD/sodipodi-0.dtd"
   xmlns:inkscape="http://www.inkscape.org/namespaces/inkscape"
   version="1.1"
   x="0px"
   y="0px"
   viewBox="0 0 66 82.5"
   enable-background="new 0 0 66 66"
   xml:space="preserve"
   id="svg80"
   sodipodi:docname="erp.svg"
   inkscape:version="0.92.3 (2405546, 2018-03-11)"><metadata
     id="metadata86"><rdf:RDF><cc:Work
         rdf:about=""><dc:format>image/svg+xml</dc:format><dc:type
           rdf:resource="http://purl.org/dc/dcmitype/StillImage" /></cc:Work></rdf:RDF></metadata><defs
     id="defs84" /><sodipodi:namedview
     pagecolor="#ffffff"
     bordercolor="#666666"
     borderopacity="1"
     objecttolerance="10"
     gridtolerance="10"
     guidetolerance="10"
     inkscape:pageopacity="0"
     inkscape:pageshadow="2"
     inkscape:window-width="640"
     inkscape:window-height="480"
     id="namedview82"
     showgrid="false"
     inkscape:zoom="2.8606061"
     inkscape:cx="33"
     inkscape:cy="41.25"
     inkscape:window-x="0"
     inkscape:window-y="0"
     inkscape:window-maximized="0"
     inkscape:current-layer="svg80" /><g
     id="g74"><g
       id="g58"><g
         id="g4"><path
           d="M33.7,4.8c0.6,0,1-0.4,1-1V1.5c0-0.6-0.4-1-1-1c-0.6,0-1,0.4-1,1v2.3C32.7,4.3,33.1,4.8,33.7,4.8z"
           id="path2" /></g><g
         id="g8"><path
           d="M25.1,6.4C25.4,6.8,26,7,26.5,6.7c0.5-0.3,0.6-0.9,0.4-1.4l-1.1-2c-0.3-0.5-0.9-0.6-1.4-0.4c-0.5,0.3-0.6,0.9-0.4,1.4     L25.1,6.4z"
           id="path6" /></g><g
         id="g12"><path
           d="M17.9,11.2l2,1.1c0.5,0.3,1.1,0.1,1.4-0.4c0.3-0.5,0.1-1.1-0.4-1.4l-2-1.1c-0.5-0.3-1.1-0.1-1.4,0.4     C17.3,10.3,17.4,10.9,17.9,11.2z"
           id="path10" /></g><g
         id="g16"><path
           d="M47.4,25.9c-0.5-0.3-1.1-0.1-1.4,0.4c-0.3,0.5-0.1,1.1,0.4,1.4l2,1.1c0.5,0.3,1.1,0.1,1.4-0.4c0.3-0.5,0.1-1.1-0.4-1.4     L47.4,25.9z"
           id="path14" /></g><g
         id="g20"><path
           d="M16,20.1h2.3c0.6,0,1-0.4,1-1c0-0.6-0.4-1-1-1H16c-0.6,0-1,0.4-1,1C15,19.7,15.5,20.1,16,20.1z"
           id="path18" /></g><g
         id="g24"><path
           d="M46.8,19.1c0,1.5,2.1,0.9,3.1,1c0.6,0,1-0.4,1-1c0-0.6-0.4-1-1-1C49,18.3,46.8,17.6,46.8,19.1z"
           id="path22" /></g><g
         id="g28"><path
           d="M17.5,28.4c0.3,0.5,0.9,0.6,1.4,0.4l2-1.1c0.5-0.3,0.6-0.9,0.4-1.4c-0.3-0.5-0.9-0.6-1.4-0.4l-2,1.1     C17.4,27.4,17.3,28,17.5,28.4z"
           id="path26" /></g><g
         id="g32"><path
           d="M47.4,12.3l2-1.1c0.5-0.3,0.6-0.9,0.4-1.4c-0.3-0.5-0.9-0.6-1.4-0.4l-2,1.1c-0.5,0.3-0.6,0.9-0.4,1.4     C46.4,12.4,47,12.6,47.4,12.3z"
           id="path30" /></g><g
         id="g36"><path
           d="M40.8,6.7c0.5,0.3,1.1,0.1,1.4-0.4l1.1-2C43.6,3.9,43.5,3.3,43,3c-0.5-0.3-1.1-0.1-1.4,0.4l-1.1,2     C40.2,5.8,40.4,6.4,40.8,6.7z"
           id="path34" /></g><g
         id="g40"><path
           d="M27.6,40c0,1.2,1,2.2,2.2,2.2h6.3c1.2,0,2.2-1,2.2-2.2v-1.6H27.6V40z"
           id="path38" /></g><g
         id="g44"><path
           d="M41.7,32.8h-1.8v-1.9c4-2.4,6.4-6.7,6.4-11.4c0-7.3-6-13.3-13.3-13.3s-13.3,6-13.3,13.3c0,4.7,2.4,9,6.4,11.4v1.9h-1.8     c-0.6,0-1,0.4-1,1c0,0.6,0.4,1,1,1h1.8v0.6c0,0.6,0.4,1,1,1h11.8c0.6,0,1-0.4,1-1v-0.6h1.8c0.6,0,1-0.4,1-1     C42.7,33.2,42.3,32.8,41.7,32.8z"
           id="path42" /></g><g
         id="g48"><path
           d="M22.8,42.8L15,50.6l0-1.6c0-0.5-0.5-1-1-1c0,0,0,0,0,0c-0.6,0-1,0.5-1,1l0.1,4c0,0.5,0.4,1,1,1l4,0.1c0,0,0,0,0,0     c0.5,0,1-0.4,1-1c0-0.6-0.4-1-1-1l-1.6,0l7.8-7.8c0.4-0.4,0.4-1,0-1.4C23.8,42.4,23.2,42.4,22.8,42.8z"
           id="path46" /></g><g
         id="g52"><path
           d="M53.2,48c-0.6,0-1,0.4-1,1l0,1.6l-7.8-7.8c-0.4-0.4-1-0.4-1.4,0c-0.4,0.4-0.4,1,0,1.4l7.8,7.8l-1.6,0c-0.6,0-1,0.5-1,1     c0,0.5,0.5,1,1,1c0,0,0,0,0,0l4-0.1c0.5,0,1-0.4,1-1l0.1-4C54.1,48.4,53.7,48,53.2,48z"
           id="path50" /></g><g
         id="g56"><path
           d="M34.6,49.9L34.6,49.9L34.6,44c0-0.6-0.4-1-1-1c-0.6,0-1,0.4-1,1l0,6l-0.1-0.1c-0.4-0.4-1-0.4-1.4,0c-0.4,0.4-0.4,1,0,1.4     l1.8,1.7c0.4,0.4,1,0.4,1.4,0l1.8-1.7c0.4-0.4,0.4-1,0-1.4C35.7,49.6,35,49.6,34.6,49.9z"
           id="path54" /></g></g><g
       id="g72"><g
         id="g62"><path
           d="M38.7,59.8c0,3.1-2.5,5.7-5.7,5.7c-3.2,0-5.7-2.6-5.7-5.7c0-3.1,2.5-5.7,5.7-5.7C36.1,54.2,38.7,56.7,38.7,59.8z"
           id="path60" /></g><g
         id="g66"><path
           d="M14.1,59.8c0,3.1-2.5,5.7-5.7,5.7c-3.2,0-5.7-2.6-5.7-5.7c0-3.1,2.5-5.7,5.7-5.7C11.6,54.2,14.1,56.7,14.1,59.8z"
           id="path64" /></g><g
         id="g70"><path
           d="M63.2,59.8c0,3.1-2.5,5.7-5.7,5.7c-3.2,0-5.7-2.6-5.7-5.7c0-3.1,2.5-5.7,5.7-5.7C60.6,54.2,63.2,56.7,63.2,59.8z"
           id="path68" /></g></g></g></svg>