<?xml version="1.0" encoding="UTF-8" standalone="no"?>
<svg
   xmlns:dc="http://purl.org/dc/elements/1.1/"
   xmlns:cc="http://creativecommons.org/ns#"
   xmlns:rdf="http://www.w3.org/1999/02/22-rdf-syntax-ns#"
   xmlns:svg="http://www.w3.org/2000/svg"
   xmlns="http://www.w3.org/2000/svg"
   xmlns:sodipodi="http://sodipodi.sourceforge.net/DTD/sodipodi-0.dtd"
   xmlns:inkscape="http://www.inkscape.org/namespaces/inkscape"
   version="1.1"
   x="0px"
   y="0px"
   viewBox="0 0 64 80"
   style="enable-background:new 0 0 64 64;"
   xml:space="preserve"
   id="svg26"
   sodipodi:docname="website.svg"
   inkscape:version="0.92.3 (2405546, 2018-03-11)"><metadata
     id="metadata32"><rdf:RDF><cc:Work
         rdf:about=""><dc:format>image/svg+xml</dc:format><dc:type
           rdf:resource="http://purl.org/dc/dcmitype/StillImage" /></cc:Work></rdf:RDF></metadata><defs
     id="defs30" /><sodipodi:namedview
     pagecolor="#ffffff"
     bordercolor="#666666"
     borderopacity="1"
     objecttolerance="10"
     gridtolerance="10"
     guidetolerance="10"
     inkscape:pageopacity="0"
     inkscape:pageshadow="2"
     inkscape:window-width="640"
     inkscape:window-height="480"
     id="namedview28"
     showgrid="false"
     inkscape:zoom="2.95"
     inkscape:cx="32"
     inkscape:cy="40"
     inkscape:window-x="0"
     inkscape:window-y="0"
     inkscape:window-maximized="0"
     inkscape:current-layer="svg26" /><g
     id="g20"><path
       d="M61,4H3C1.346,4,0,5.346,0,7v50c0,1.654,1.346,3,3,3h58c1.654,0,3-1.346,3-3V7C64,5.346,62.654,4,61,4z M3,6h58   c0.552,0,1,0.448,1,1v7H2V7C2,6.448,2.448,6,3,6z M61,58H3c-0.552,0-1-0.448-1-1V16h60v41C62,57.552,61.552,58,61,58z"
       id="path2" /><path
       d="M44.316,48.685C47.211,45.635,49,41.526,49,37s-1.789-8.635-4.684-11.685c-0.013-0.013-0.017-0.029-0.029-0.041   c-0.006-0.006-0.014-0.007-0.02-0.013C41.171,22.027,36.821,20,32,20c-4.821,0-9.171,2.027-12.268,5.262   c-0.006,0.006-0.014,0.007-0.02,0.013c-0.013,0.012-0.017,0.028-0.029,0.041C16.789,28.365,15,32.474,15,37   s1.789,8.635,4.684,11.685c0.013,0.013,0.017,0.029,0.029,0.041c0.006,0.006,0.014,0.007,0.02,0.013C22.829,51.973,27.179,54,32,54   c4.821,0,9.17-2.026,12.267-5.262c0.007-0.006,0.015-0.007,0.021-0.013C44.3,48.714,44.304,48.697,44.316,48.685z M17.051,38h6.973   c0.053,2.021,0.256,3.944,0.602,5.702c-1.509,0.732-2.909,1.691-4.168,2.864C18.5,44.209,17.266,41.242,17.051,38z M20.457,27.434   c1.259,1.174,2.659,2.133,4.168,2.864c-0.346,1.758-0.549,3.681-0.602,5.702h-6.973C17.266,32.758,18.5,29.791,20.457,27.434z    M46.949,36h-6.973c-0.053-2.021-0.255-3.944-0.601-5.702c1.508-0.731,2.908-1.69,4.167-2.864C45.5,29.791,46.734,32.758,46.949,36   z M26.022,36c0.049-1.766,0.219-3.418,0.491-4.919C28.256,31.676,30.099,32,32,32c1.901,0,3.744-0.324,5.486-0.919   c0.273,1.501,0.442,3.153,0.491,4.919H26.022z M37.977,38c-0.049,1.766-0.219,3.418-0.491,4.919C35.744,42.324,33.901,42,32,42   c-1.901,0-3.744,0.324-5.486,0.919c-0.272-1.501-0.442-3.153-0.491-4.919H37.977z M38.898,28.305   c-0.634-2.302-1.513-4.238-2.57-5.662c2.201,0.665,4.182,1.83,5.829,3.352C41.163,26.918,40.071,27.692,38.898,28.305z    M37.049,29.111C35.45,29.685,33.753,30,32,30c-1.753,0-3.45-0.315-5.049-0.889C28.102,24.715,30.119,22,32,22   C33.881,22,35.897,24.715,37.049,29.111z M25.102,28.305c-1.173-0.612-2.265-1.387-3.259-2.311   c1.647-1.521,3.628-2.687,5.829-3.352C26.614,24.066,25.735,26.003,25.102,28.305z M25.102,45.695   c0.634,2.302,1.513,4.238,2.57,5.662c-2.201-0.665-4.182-1.83-5.829-3.351C22.837,47.082,23.929,46.308,25.102,45.695z    M26.951,44.889C28.55,44.315,30.247,44,32,44c1.753,0,3.45,0.315,5.049,0.889C35.897,49.285,33.881,52,32,52   C30.119,52,28.102,49.285,26.951,44.889z M38.898,45.695c1.173,0.612,2.265,1.387,3.259,2.311   c-1.647,1.521-3.628,2.687-5.829,3.351C37.386,49.934,38.265,47.997,38.898,45.695z M39.376,43.702   c0.346-1.758,0.548-3.681,0.601-5.702h6.973c-0.215,3.242-1.449,6.209-3.406,8.566C42.284,45.393,40.884,44.434,39.376,43.702z"
       id="path4" /><path
       d="M57,13c1.654,0,3-1.346,3-3s-1.346-3-3-3c-1.654,0-3,1.346-3,3S55.346,13,57,13z M57,9c0.552,0,1,0.448,1,1s-0.448,1-1,1   c-0.552,0-1-0.448-1-1S56.448,9,57,9z"
       id="path6" /><path
       d="M49,13c1.654,0,3-1.346,3-3s-1.346-3-3-3c-1.654,0-3,1.346-3,3S47.346,13,49,13z M49,9c0.552,0,1,0.448,1,1s-0.448,1-1,1   c-0.552,0-1-0.448-1-1S48.448,9,49,9z"
       id="path8" /><path
       d="M41,13c1.654,0,3-1.346,3-3s-1.346-3-3-3c-1.654,0-3,1.346-3,3S39.346,13,41,13z M41,9c0.552,0,1,0.448,1,1s-0.448,1-1,1   c-0.552,0-1-0.448-1-1S40.448,9,41,9z"
       id="path10" /><path
       d="M6,21h10c0.553,0,1-0.447,1-1s-0.447-1-1-1H6c-0.553,0-1,0.447-1,1S5.447,21,6,21z"
       id="path12" /><path
       d="M11,23H6c-0.553,0-1,0.447-1,1s0.447,1,1,1h5c0.553,0,1-0.447,1-1S11.553,23,11,23z"
       id="path14" /><path
       d="M58,53H48c-0.553,0-1,0.447-1,1s0.447,1,1,1h10c0.553,0,1-0.447,1-1S58.553,53,58,53z"
       id="path16" /><path
       d="M58,49h-5c-0.553,0-1,0.447-1,1s0.447,1,1,1h5c0.553,0,1-0.447,1-1S58.553,49,58,49z"
       id="path18" /></g></svg>